Trabalho_Final
…
Preparing de DataFrame_2

country_function(id = 1)

## # A tibble: 154 x 10
##    x     number species   common_name   country state_name first_year country_id
##    <chr>  <int> <chr>     <chr>         <chr>   <chr>           <int>      <int>
##  1 ""         1 Lolium r~ Rigid Ryegra~ Austra~ New South~       1985          1
##  2 ""         2 Avena st~ Sterile Oat   Austra~ New South~       1989          1
##  3 ""         3 Avena fa~ Wild Oat      Austra~ New South~       1991          1
##  4 ""         4 Cyperus ~ Smallflower ~ Austra~ New South~       1994          1
##  5 ""         5 Sagittar~ California A~ Austra~ New South~       1994          1
##  6 ""         6 Damasoni~ Starfruit     Austra~ New South~       1994          1
##  7 ""         7 Sisymbri~ Oriental Mus~ Austra~ New South~       1994          1
##  8 ""         8 Sinapis ~ Wild Mustard  Austra~ New South~       1996          1
##  9 ""         9 Phalaris~ Hood Canaryg~ Austra~ New South~       1997          1
## 10 ""        10 Lolium r~ Rigid Ryegra~ Austra~ New South~       1997          1
## # ... with 144 more rows, and 2 more variables: site_of_action <chr>,
## #   resist_id <int>
…
